Tabulates breath test parameter differences of groups from Stan group fit — coef_diff_by_group • breathteststan
…
# For comparison
fit = nlme_fit(data)
coef_diff_by_group(fit)
#> # A tibble: 24 x 7
#>    parameter method       groups           estimate conf.low conf.high  p.value
#>    <chr>     <chr>        <chr>               <dbl>    <dbl>     <dbl>    <dbl>
#>  1 beta      exp_beta     solid_normal -~   0.0874  -1.70e-1   3.44e-1 7.05e- 1
#>  2 beta      exp_beta     solid_patient ~   0.117   -1.58e-1   3.92e-1 5.78e- 1
#>  3 beta      exp_beta     solid_patient ~   0.0296  -2.27e-1   2.86e-1 9.61e- 1
#>  4 k         exp_beta     solid_normal -~  -0.00373 -5.35e-3  -2.11e-3 1.75e- 7
#>  5 k         exp_beta     solid_patient ~  -0.00551 -8.22e-3  -2.80e-3 4.49e- 6
#>  6 k         exp_beta     solid_patient ~  -0.00178 -4.38e-3   8.20e-4 2.42e- 1
#>  7 m         exp_beta     solid_normal -~ -15.5     -2.00e+1  -1.11e+1 7.33e-15
#>  8 m         exp_beta     solid_patient ~  -4.48    -2.44e+1   1.54e+1 8.54e- 1
#>  9 m         exp_beta     solid_patient ~  11.1     -8.72e+0   3.08e+1 3.82e- 1
#> 10 t50       bluck_coward solid_normal -~  14.9      3.89e+0   2.59e+1 4.31e- 3
#> # ... with 14 more rows
…
