Bayesian Stan fit to 13C Breath Data in Multiple Groups — stan_group_fit • breathteststan
…
coef(fit)
#> # A tibble: 80 x 5
#>    patient_id group         parameter method                       value
#>    <chr>      <chr>         <chr>     <chr>                        <dbl>
#>  1 norm_001   liquid_normal beta      exp_beta                   1.79   
#>  2 norm_001   liquid_normal k         exp_beta                   0.0108 
#>  3 norm_001   liquid_normal m         exp_beta                  36.9    
#>  4 norm_001   liquid_normal t50       bluck_coward              23.9    
#>  5 norm_001   liquid_normal t50       maes_ghoos               105.     
#>  6 norm_001   liquid_normal t50       maes_ghoos_scintigraphy   34.9    
#>  7 norm_001   liquid_normal tlag      bluck_coward             -10.3    
#>  8 norm_001   liquid_normal tlag      maes_ghoos                53.9    
#>  9 norm_001   solid_normal  beta      exp_beta                   1.86   
#> 10 norm_001   solid_normal  k         exp_beta                   0.00487
#> # ... with 70 more rows
…
